%YAML 1.1
%TAG !u! tag:unity3d.com,2011:
--- !u!1045 &1
EditorBuildSettings:
  m_ObjectHideFlags: 0
  serializedVersion: 2
  m_Scenes:
  - enabled: 1
    path: Assets/Scenes/AppUpdaterDemo.unity
    guid: a903e7bbd95ba924ca0370a801345aca
  m_configObjects: {}
