%YAML 1.1
%TAG !u! tag:unity3d.com,2011:
--- !u!114 &11400000
MonoBehaviour:
  m_ObjectHideFlags: 0
  m_CorrespondingSourceObject: {fileID: 0}
  m_PrefabInstance: {fileID: 0}
  m_PrefabAsset: {fileID: 0}
  m_GameObject: {fileID: 0}
  m_Enabled: 1
  m_EditorHideFlags: 0
  m_Script: {fileID: 11500000, guid: 7a09bba2dd3f49141b6fdbdfa7fc9ebe, type: 3}
  m_Name: chatform
  m_EditorClassIdentifier: 
  UIName: chatform
  UIComponentDatas:
  - IsSelect: 1
    ComponentName: txt_content
    ComponentPath: txt_content
    SelectType: 1
    EventDatas: []
  - IsSelect: 1
    ComponentName: btn_tcp_chat
    ComponentPath: btn_tcp_chat
    SelectType: 4
    EventDatas:
    - EventType: 14
      EventHandlerName: onClick_btn_tcp_chat
  - IsSelect: 1
    ComponentName: input_chat
    ComponentPath: input_chat
    SelectType: 9
    EventDatas: []
  - IsSelect: 1
    ComponentName: btn_http_post
    ComponentPath: btn_http_post
    SelectType: 4
    EventDatas:
    - EventType: 14
      EventHandlerName: onClick_btn_http_post
  - IsSelect: 1
    ComponentName: btn_http_get
    ComponentPath: btn_http_get
    SelectType: 4
    EventDatas:
    - EventType: 14
      EventHandlerName: onClick_btn_http_get
  - IsSelect: 1
    ComponentName: btn_back
    ComponentPath: btn_back
    SelectType: 4
    EventDatas:
    - EventType: 14
      EventHandlerName: onClick_btn_back
  - IsSelect: 1
    ComponentName: btn_clear
    ComponentPath: btn_clear
    SelectType: 4
    EventDatas:
    - EventType: 14
      EventHandlerName: onClick_btn_clear
  - IsSelect: 1
    ComponentName: btn_http_disorder
    ComponentPath: btn_http_disorder
    SelectType: 4
    EventDatas:
    - EventType: 14
      EventHandlerName: onClick_btn_http_disorder
